Veckoschema
…
read_lines("data/hemsoborna.txt", skip = 194, n_max = 21) %>% 
  str_c(collapse = " ")

## [1] "Han kom som ett yrväder en aprilafton och hade ett höganäskrus i en  \nsvångrem om halsen. Clara och Lotten voro inne med sköt-ekan att hämta  \nhonom på Dalarö brygga; men det dröjde evigheter, innan de kommo i båt.  \nDe skulle till handelsman och ha en tunna tjära och på abeteket och hämta  \ngråsalva åt grisen, och så skulle de på posten och få ett frimärke, och  \nså skulle de ner till Fia Lövström i Kroken och låna tuppen mot ett  \nhalvpund småtärna till notbygget, och sist hade de hamnat på  \ngästgivaregården, där Carlsson bjudit på kaffe med dopp. Och så kommo de  \näntligen i båt, men Carlsson ville styra, och det kunde han inte, för han  \nhade aldrig sett en råseglare förr, och därför skrek han, att de skulle  \nhissa focken, som inte fanns."

och spara hela boken i en tibble med

hemsoborna <- tibble(row = read_lines("data/hemsoborna.txt", 
                                       skip = 90, n_max = 10178)) %>% 
  filter(row != "") %>% 
  mutate(row_no = 1:n())
hemsoborna

## # A tibble: 5,088 x 2
##    row                   row_no
##    <chr>                  <int>
##  1 "\n"                       1
##  2 "\n"                       2
##  3 "\n"                       3
##  4 "\nHEMSÖBORNA"             4
##  5 "\n"                       5
##  6 "\nAV"                     6
##  7 "\n"                       7
##  8 "\nAUGUST STRINDBERG"      8
##  9 "\n"                       9
## 10 "\nSTOCKHOLM"             10
## # ... with 5,078 more rows
…
hemsoborna_words <- hemsoborna %>% 
  mutate(word = str_extract_all(row, boundary("word"))) %>% 
  group_by(row_no) %>% 
  summarise(word = unlist(word)) %>% 
  ungroup() %>% 
  mutate(word = str_to_lower(word),
         chapter = cumsum(str_detect(word, "kapitlet")))

Vad gör egentligen chapter = cumsum(str_detect(word, "kapitlet"))?

Vi kan nu få de vanligaste orden med

hemsoborna_words %>% count(word, sort = TRUE)

## # A tibble: 8,481 x 2
##    word      n
##    <chr> <int>
##  1 och    2457
##  2 i      1053
##  3 han     940
##  4 att     875
##  5 på      851
##  6 som     811
##  7 det     797
##  8 en      756
##  9 med     571
## 10 sig     509
## # ... with 8,471 more rows
…
som skapar en figur motsvarande den i Laboration 1 baserat på givet data.

Vill vi nu plotta t.ex. tvåor kan vi använda funktionen med anropet booli_data %>% filter(rooms == 2) %>% plot_price_ts(). Lägg till ett argument rooms till funktionen så att plot_price_ts(booli_data, rooms = 2) ger samma resultat.

Olympiska medaljer

På https://sv.wikipedia.org/wiki/Medaljf%C3%B6rdelning_vid_olympiska_sommarspelen_2020 hittar du medaljfördelningen för OS i Tokyo. Tabellen kan hämtas med

library(rvest)
url <- "https://sv.wikipedia.org/wiki/Medaljf%C3%B6rdelning_vid_olympiska_sommarspelen_2020"
read_html(url) %>% 
  html_element(".wikitable") %>% 
  html_table()

## # A tibble: 94 x 7
##    Pl.   Land            Guld Silver Brons TAM    PEAM
##    <chr> <chr>          <int>  <int> <int> <chr> <int>
##  1 1     USA               39     41    33 113       1
##  2 2     Kina              38     32    18 88        2
##  3 3     Japan             27     14    17 58        5
##  4 4     Storbritannien    22     21    22 65        4
##  5 5     ROC               20     28    23 71        3
##  6 6     Australien        17      7    22 46        6
##  7 7     Nederländerna     10     12    14 36        9
##  8 8     Frankrike         10     12    11 33       10
##  9 9     Tyskland          10     11    16 37        8
## 10 10    Italien           10     10    20 40        7
## # ... with 84 more rows

En motsvarande tabell för t.ex. OS i Rio kan hämtas genom att byta 2020 mot 2016.

Konstruera en funktion

get_medals <- function(year){
  ...
}

som returnerar medaljtabellen för OS-år year som nedan (glöm inte ta bort Total-raden). Tyvärr är inte alla kolumnnamn helt konsistenta, men du behöver bara kolumnerna Land, Guld, Silver och Brons.

get_medals(2016)

## # A tibble: 264 x 4
##     year country        class  number
##    <dbl> <chr>          <chr>   <int>
##  1  2016 USA            Guld       46
##  2  2016 USA            Silver     37
##  3  2016 USA            Brons      38
##  4  2016 Storbritannien Guld       27
##  5  2016 Storbritannien Silver     23
##  6  2016 Storbritannien Brons      17
##  7  2016 Kina           Guld       26
##  8  2016 Kina           Silver     18
##  9  2016 Kina           Brons      26
## 10  2016 Ryssland       Guld       19
## # ... with 254 more rows
…
urls <- str_c("https://github.com/MT3003-ST22/data/raw/main/gapminder_raw/", filenames)
destfiles <- str_c("data/gapminder_raw/", filenames)
walk2(urls, destfiles, download.file)

Konstruera en funktion

read_gapminder <- function(file, path = "data/gapminder_raw/"){
  ...
}

som genererar följande

read_gapminder("life_expectancy_years.csv")

## # A tibble: 56,889 x 4
##    country     year  value variable             
##    <chr>       <chr> <dbl> <chr>                
##  1 Afghanistan 1800   28.2 life_expectancy_years
##  2 Afghanistan 1801   28.2 life_expectancy_years
##  3 Afghanistan 1802   28.2 life_expectancy_years
##  4 Afghanistan 1803   28.2 life_expectancy_years
##  5 Afghanistan 1804   28.2 life_expectancy_years
##  6 Afghanistan 1805   28.2 life_expectancy_years
##  7 Afghanistan 1806   28.1 life_expectancy_years
##  8 Afghanistan 1807   28.1 life_expectancy_years
##  9 Afghanistan 1808   28.1 life_expectancy_years
## 10 Afghanistan 1809   28.1 life_expectancy_years
## # ... with 56,879 more rows
…
library(httr)
response <- GET("https://api.pi.delivery/v1/pi?start=1&numberOfDigits=10")
content(response)

## $content
## [1] "1415926535"

Nobel API

På https://nobelprize.readme.io/ finns ett API där du kan hämta data om nobelpriser och pristagare. Välj en kategori, t.ex. prize och prova göra ett anrop under “Try it out” längst ned på sidan. Klicka “Try it!” och notera den URL som genereras i fönstret under. Väljer vi format csv och category literature blir denna http://api.nobelprize.org/v1/prize.csv?category=literature. För att hämta resultatet till R

response <- GET("http://api.nobelprize.org/v1/prize.csv?category=literature")
content(response)

## # A tibble: 118 x 8
##     year category   overallMotivation    id firstname  surname  motivation share
##    <dbl> <chr>      <lgl>             <dbl> <chr>      <chr>    <chr>      <dbl>
##  1  2021 literature NA                 1004 Abdulrazak Gurnah   "\"for hi~     1
##  2  2020 literature NA                  993 Louise     Glück    "\"for he~     1
##  3  2019 literature NA                  980 Peter      Handke   "\"for an~     1
##  4  2018 literature NA                  979 Olga       Tokarcz~ "\"for a ~     1
##  5  2017 literature NA                  947 Kazuo      Ishiguro "\"who in~     1
##  6  2016 literature NA                  937 Bob        Dylan    "\"for ha~     1
##  7  2015 literature NA                  924 Svetlana   Alexiev~ "\"for he~     1
##  8  2014 literature NA                  912 Patrick    Modiano  "\"for th~     1
##  9  2013 literature NA                  892 Alice      Munro    "\"master~     1
## 10  2012 literature NA                  880 Mo         Yan      "\"who wi~     1
## # ... with 108 more rows
…
## {xml_nodeset (5)}
## [1] <table class="wikitable sortable"><tbody>\n<tr>\n<th>\n<span style="curso ...
## [2] <table class="navbox" style="border-spacing:0; ;"><tbody><tr><td style="p ...
## [3] <table class="collapsible autocollapse" style="width:100%;border-spacing: ...
## [4] <table class="navbox" style="border-spacing:0; ;"><tbody><tr><td style="p ...
## [5] <table class="collapsible autocollapse" style="width:100%;border-spacing: ...

Sidan innehåller fem tabeller där vi vill ha den första. Vi kan extrahera denna med

html_table(elements[[1]])

## # A tibble: 94 x 7
##    Pl.   Land            Guld Silver Brons TAM    PEAM
##    <chr> <chr>          <int>  <int> <int> <chr> <int>
##  1 1     USA               39     41    33 113       1
##  2 2     Kina              38     32    18 88        2
##  3 3     Japan             27     14    17 58        5
##  4 4     Storbritannien    22     21    22 65        4
##  5 5     ROC               20     28    23 71        3
##  6 6     Australien        17      7    22 46        6
##  7 7     Nederländerna     10     12    14 36        9
##  8 8     Frankrike         10     12    11 33       10
##  9 9     Tyskland          10     11    16 37        8
## 10 10    Italien           10     10    20 40        7
## # ... with 84 more rows

men väljer istället att utnyttja class-attributet wikitable eftersom medaljtabellen inte ligger först på alla OS-sidor

elements <- html_elements(page, css = ".wikitable")
html_table(elements)

## [[1]]
## # A tibble: 94 x 7
##    Pl.   Land            Guld Silver Brons TAM    PEAM
##    <chr> <chr>          <int>  <int> <int> <chr> <int>
##  1 1     USA               39     41    33 113       1
##  2 2     Kina              38     32    18 88        2
##  3 3     Japan             27     14    17 58        5
##  4 4     Storbritannien    22     21    22 65        4
##  5 5     ROC               20     28    23 71        3
##  6 6     Australien        17      7    22 46        6
##  7 7     Nederländerna     10     12    14 36        9
##  8 8     Frankrike         10     12    11 33       10
##  9 9     Tyskland          10     11    16 37        8
## 10 10    Italien           10     10    20 40        7
## # ... with 84 more rows

Punkten i .wikitable anger att det just är class-attributet vi skall välja efter (se CSS-väljare). Ett verktyg som är användbart för att identifiera dessa är SelectorGadget, som till exempel kan installeras som ett tillägg i Chrome.

På linande sätt kan vi hämta aktuell tabell för Allsvenskan med

url <- "https://www.allsvenskan.se/tabell"
page <- read_html(url)
elements <- html_elements(page, css = ".col-md-6")
html_table(elements[[1]])

## # A tibble: 33 x 10
##    `#`   ``    LAG   ``             M     V     O     F     `+/-` P    
##    <chr> <lgl> <chr> <chr>          <chr> <chr> <chr> <chr> <chr> <chr>
##  1 1     NA    ""    Hammarby       9     6     2     1     19-7  20   
##  2 2     NA    ""    BK Häcken      9     6     2     1     18-11 20   
##  3 3     NA    ""    AIK            10    6     2     2     15-12 20   
##  4 4     NA    ""    Djurgården     10    4     3     3     16-8  15   
##  5 5     NA    ""    Kalmar FF      9     5     0     4     12-8  15   
##  6 6     NA    ""    Malmö FF       10    4     3     3     9-9   15   
##  7 7     NA    ""    IF Elfsborg    9     4     2     3     17-9  14   
##  8 8     NA    ""    Mjällby AIF    9     4     2     3     9-8   14   
##  9 9     NA    ""    IK Sirius      9     4     2     3     9-13  14   
## 10 10    NA    ""    IFK Norrköping 9     4     1     4     12-10 13   
## # ... with 23 more rows
…
Här noterar vi att antalet rader i tabellen är listat som ??, vilket beror på att dbplyr ser till att bara hämta så mycket som är nödvändigt för att visa tabellens inledande rader. Vill vi hämta hela tabellen som en vanlig tibble använder vi collect

collect(movies)

## # A tibble: 36 x 4
##        id name             year  rank
##     <int> <chr>           <int> <dbl>
##  1  10920 Aliens           1986  8.20
##  2  17173 Animal House     1978  7.5 
##  3  18979 Apollo 13        1995  7.5 
##  4  30959 Batman Begins    2005 NA   
##  5  46169 Braveheart       1995  8.30
##  6 109093 Fargo            1996  8.20
##  7 111813 Few Good Men, A  1992  7.5 
##  8 112290 Fight Club       1999  8.5 
##  9 116907 Footloose        1984  5.80
## 10 124110 Garden State     2004  8.30
## # ... with 26 more rows
…
